{
  "site" : {
    "name" : "한국과학기술연구원",
    "address" : "[02792] 서울특별시 성북구 화랑로 14길 5 (하월곡동 39-1)",
    "tel" : "02.958.5959",
    "fax" : "02.958.5969",
    "copyright" : [
      "Copyright &copy; 2017 한국과학기술연구원 특성분석센터",
      "All Right Reserved."
    ]
  },
  "pages" : {
    "homepage" : {
      "title" : {
        "eng" : "homepage",
        "kor" : "홈페이지관리"
      },
      "links" : [
        "../homepage/홈페이지관리_01메인사진관리_01목록.html"
      ],
      "children" : [
        {
          "title" : "메인 배경관리",
          "links" : [
            "../homepage/홈페이지관리_01메인배경관리_01pc_03상세.html",
            "../homepage/홈페이지관리_01메인배경관리_01pc_04등록.html",
            "../homepage/홈페이지관리_01메인배경관리_01pc_05수정.html",
            "../homepage/홈페이지관리_01메인배경관리_02mobile_03상세.html",
            "../homepage/홈페이지관리_01메인배경관리_02mobile_04등록.html",
            "../homepage/홈페이지관리_01메인배경관리_02mobile_05수정.html"
          ]
        },
        {
          "title" : "배너관리",
          "links" : [
            "../homepage/홈페이지관리_02배너관리_01목록.html",
            "../homepage/홈페이지관리_02배너관리_02빈값.html",
            "../homepage/홈페이지관리_02배너관리_03상세.html",
            "../homepage/홈페이지관리_02배너관리_04등록수정.html"
          ]
        },
        {
          "title" : "관리자로그관리",
          "links" : [
            "../homepage/홈페이지관리_03관리자로그관리_01목록.html",
            "../homepage/홈페이지관리_03관리자로그관리_02빈값.html"
          ]
        },
        {
          "title" : "방문자접속통계",
          "links" : [
            ""
          ]
        }
      ]
    },
    "members" : {
      "title" : {
        "eng" : "members",
        "kor" : "회원관리"
      },
      "links" : [
        "../members/회원관리_01회원관리_01목록.html"
      ],
      "children" : [
        {
          "title" : "회원관리",
          "links" : [
            "../members/회원관리_01회원관리_01목록.html",
            "../members/회원관리_01회원관리_02빈값.html",
            "../members/회원관리_01회원관리_03상세.html"
          ]
        },
        {
          "title" : "기관관리",
          "links" : [
            "../members/회원관리_02기관관리_01목록.html",
            "../members/회원관리_02기관관리_02빈값.html",
            "../members/회원관리_02기관관리_03상세.html",
            "../members/회원관리_02기관관리_04등록수정.html"
          ]
        }
      ]
    },
    "researchers" : {
      "title" : {
        "eng" : "researchers",
        "kor" : "연구원관리"
      },
      "links" : [
        "../researchers/연구원관리_01연구원관리_01목록.html"
      ],
      "children" : [
        {
          "title" : "연구원관리",
          "links" : [
            "../researchers/연구원관리_01연구원관리_01목록.html",
            "../researchers/연구원관리_01연구원관리_02빈값.html",
            "../researchers/연구원관리_01연구원관리_03상세.html",
            "../researchers/연구원관리_01연구원관리_04등록수정.html"
          ]
        }
      ]
    },
    "gears" : {
      "title" : {
        "eng" : "gears",
        "kor" : "장비관리"
      },
      "links" : [
        "../gears/장비관리_01장비정보관리_01목록.html"
      ],
      "children" : [
        {
          "title" : "장비정보관리",
          "links" : [
            "../gears/장비관리_01장비정보관리_01목록.html",
            "../gears/장비관리_01장비정보관리_02빈값.html",
            "../gears/장비관리_01장비정보관리_03상세.html",
            "../gears/장비관리_01장비정보관리_04등록수정.html"
          ]
        }
      ]
    },
    "requests" : {
      "title" : {
        "eng" : "requests",
        "kor" : "분석의뢰관리"
      },
      "links" : [
        "../requests/분석의뢰관리_01분석의뢰관리_01목록.html"
      ],
      "children" : [
        {
          "title" : "분석의뢰관리",
          "links" : [
            "../requests/분석의뢰관리_01분석의뢰관리_01목록.html",
            "../requests/분석의뢰관리_01분석의뢰관리_02빈값.html",
            "../requests/분석의뢰관리_01분석의뢰관리_03상세.html"
          ]
        },
        {
          "title" : "이용수수료관리",
          "links" : [
            "../requests/분석의뢰관리_02이용수수료관리_01pc_01등록수정.html",
            "../requests/분석의뢰관리_02이용수수료관리_02mobile_01등록수정.html"
          ]
        }
      ]
    },
    "education" : {
      "title" : {
        "eng" : "education",
        "kor" : "교육관리"
      },
      "links" : [
        "../education/교육관리_01교육관리_01목록.html"
      ],
      "children" : [
        {
          "title" : "교육관리",
          "links" : [
            "../education/교육관리_01교육관리_01목록.html",
            "../education/교육관리_01교육관리_02빈값.html",
            "../education/교육관리_01교육관리_03상세.html",
            "../education/교육관리_01교육관리_04등록수정.html"
          ]
        },
        {
          "title" : "세미나&amp;워크샵관리",
          "links" : [
            "../education/교육관리_02세미나워크샵관리_01목록.html",
            "../education/교육관리_02세미나워크샵관리_02빈값.html",
            "../education/교육관리_02세미나워크샵관리_03상세.html",
            "../education/교육관리_02세미나워크샵관리_04등록수정.html"
          ]
        },
        {
          "title" : "신청자관리",
          "links" : [
            "../education/교육관리_03신청자관리_01목록.html",
            "../education/교육관리_03신청자관리_02빈값.html",
            "../education/교육관리_03신청자관리_03상세.html",
            "../education/교육관리_03신청자관리_04등록수정.html"
          ]
        },
        {
          "title" : "교육일정표등록",
          "links" : [
            "../education/교육관리_04교육일정표등록_01목록.html",
            "../education/교육관리_04교육일정표등록_02빈값.html",
            "../education/교육관리_04교육일정표등록_03상세.html",
            "../education/교육관리_04교육일정표등록_04등록수정.html"
          ]
        }
      ]
    },
    "achievement" : {
      "title" : {
        "eng" : "achievement",
        "kor" : "연구성과관리"
      },
      "links" : [
        "../achievement/연구성과관리_01연구원등록_01목록.html"
      ],
      "children" : [
        {
          "title" : "연구원등록",
          "links" : [
            "../achievement/연구성과관리_01연구원등록_01목록.html",
            "../achievement/연구성과관리_01연구원등록_02빈값.html"
          ]
        },
        {
          "title" : "연구성과",
          "links" : [
            "../achievement/연구성과관리_02연구성과_01목록.html",
            "../achievement/연구성과관리_02연구성과_02빈값.html",
            "../achievement/연구성과관리_02연구성과_03상세.html",
            "../achievement/연구성과관리_02연구성과_04등록수정.html"
          ]
        }
      ]
    },
    "board" : {
      "title" : {
        "eng" : "board",
        "kor" : "게시판관리"
      },
      "links" : [
        "../board/게시판관리_01공지사항관리_01목록.html"
      ],
      "children" : [
        {
          "title" : "공지사항",
          "links" : [
            "../board/게시판관리_01공지사항_01목록.html",
            "../board/게시판관리_01공지사항_02빈값.html",
            "../board/게시판관리_01공지사항_03상세.html",
            "../board/게시판관리_01공지사항_04등록수정.html"
          ]
        },
        {
          "title" : "자료실",
          "links" : [
            "../board/게시판관리_02자료실_01목록.html",
            "../board/게시판관리_02자료실_02빈값.html",
            "../board/게시판관리_02자료실_03상세.html",
            "../board/게시판관리_02자료실_04등록수정.html"
          ]
        },
        {
          "title" : "채용안내",
          "links" : [
            "../board/게시판관리_03채용안내_01목록.html",
            "../board/게시판관리_03채용안내_02빈값.html",
            "../board/게시판관리_03채용안내_03상세.html",
            "../board/게시판관리_03채용안내_04등록수정.html"
          ]
        },
        {
          "title" : "홍보뉴스",
          "links" : [
            "../board/게시판관리_04홍보뉴스_01목록.html",
            "../board/게시판관리_04홍보뉴스_02빈값.html",
            "../board/게시판관리_04홍보뉴스_03상세.html",
            "../board/게시판관리_04홍보뉴스_04등록수정.html"
          ]
        },
        {
          "title" : "뉴스레터",
          "links" : [
            "../board/게시판관리_05뉴스레터_01목록.html",
            "../board/게시판관리_05뉴스레터_02빈값.html",
            "../board/게시판관리_05뉴스레터_03상세.html",
            "../board/게시판관리_05뉴스레터_04등록수정.html"
          ]
        },
        {
          "title" : "Q&A",
          "links" : [
            "../board/게시판관리_06QnA_01목록.html",
            "../board/게시판관리_06QnA_02빈값.html",
            "../board/게시판관리_06QnA_03상세.html",
            "../board/게시판관리_06QnA_04등록수정.html"
          ]
        }
      ]
    }
  }
}